{
    "Java": {
        "url": "https://java.com/ru/",
        "key": [".java", ".jar", ".class"]
    },
    "PHP": {
        "url": "http://php.net/",
        "key": [".php", ".phtml", ".php3", ".php4", ".php5", ".php7", ".phps", ".php-s"]
    },
    "Ruby": {
        "url": "https://www.ruby-lang.org/en/",
        "key": ".rb"
    },
    "Python": {
        "url": "https://www.python.org/",
        "key": [".py", ".pyc", ".pyd", ".pyo", ".pyw", ".pyz"]
    },
    "Perl": {
        "url": "https://www.perl.org/",
        "key": [".pl", ".pm", ".t", ".pod"]
    },
    "C++": {
        "url": "https://isocpp.org/",
        "key": [".C", ".cc", ".cpp", ".cxx", ".c++", ".h", ".hh", ".hpp", ".hxx", ".h++"]
    }
}